%YAML 1.1
%TAG !u! tag:unity3d.com,2011:
--- !u!1001 &8190580564013591194
PrefabInstance:
  m_ObjectHideFlags: 0
  serializedVersion: 2
  m_Modification:
    m_TransformParent: {fileID: 0}
    m_Modifications:
    - target: {fileID: 7143120030860461596, guid: 325329e3d678eaf42a415b804cd950fe,
        type: 3}
      propertyPath: m_LocalPosition.x
      value: 0
      objectReference: {fileID: 0}
    - target: {fileID: 7143120030860461596, guid: 325329e3d678eaf42a415b804cd950fe,
        type: 3}
      propertyPath: m_LocalPosition.y
      value: 0
      objectReference: {fileID: 0}
    - target: {fileID: 7143120030860461596, guid: 325329e3d678eaf42a415b804cd950fe,
        type: 3}
      propertyPath: m_LocalPosition.z
      value: 0
      objectReference: {fileID: 0}
    - target: {fileID: 7143120030860461596, guid: 325329e3d678eaf42a415b804cd950fe,
        type: 3}
      propertyPath: m_LocalRotation.x
      value: -0
      objectReference: {fileID: 0}
    - target: {fileID: 7143120030860461596, guid: 325329e3d678eaf42a415b804cd950fe,
        type: 3}
      propertyPath: m_LocalRotation.y
      value: -0
      objectReference: {fileID: 0}
    - target: {fileID: 7143120030860461596, guid: 325329e3d678eaf42a415b804cd950fe,
        type: 3}
      propertyPath: m_LocalRotation.z
      value: -0
      objectReference: {fileID: 0}
    - target: {fileID: 7143120030860461596, guid: 325329e3d678eaf42a415b804cd950fe,
        type: 3}
      propertyPath: m_LocalRotation.w
      value: 1
      objectReference: {fileID: 0}
    - target: {fileID: 7143120030860461596, guid: 325329e3d678eaf42a415b804cd950fe,
        type: 3}
      propertyPath: m_RootOrder
      value: 0
      objectReference: {fileID: 0}
    - target: {fileID: 7143120030860461596, guid: 325329e3d678eaf42a415b804cd950fe,
        type: 3}
      propertyPath: m_LocalEulerAnglesHint.x
      value: 0
      objectReference: {fileID: 0}
    - target: {fileID: 7143120030860461596, guid: 325329e3d678eaf42a415b804cd950fe,
        type: 3}
      propertyPath: m_LocalEulerAnglesHint.y
      value: 0
      objectReference: {fileID: 0}
    - target: {fileID: 7143120030860461596, guid: 325329e3d678eaf42a415b804cd950fe,
        type: 3}
      propertyPath: m_LocalEulerAnglesHint.z
      value: 0
      objectReference: {fileID: 0}
    - target: {fileID: 7143120030860461597, guid: 325329e3d678eaf42a415b804cd950fe,
        type: 3}
      propertyPath: m_Name
      value: Object Plate
      objectReference: {fileID: 0}
    - target: {fileID: 8792827158161607793, guid: 325329e3d678eaf42a415b804cd950fe,
        type: 3}
      propertyPath: activationObject
      value: 1
      objectReference: {fileID: 0}
    - target: {fileID: 8792827158161607793, guid: 325329e3d678eaf42a415b804cd950fe,
        type: 3}
      propertyPath: requiresHeld
      value: 1
      objectReference: {fileID: 0}
    - target: {fileID: 8792827158161607793, guid: 325329e3d678eaf42a415b804cd950fe,
        type: 3}
      propertyPath: unlitMaterial
      value: 
      objectReference: {fileID: 2100000, guid: cc2c2754634799347a9504648e25bd31, type: 2}
    - target: {fileID: 8792827158161607793, guid: 325329e3d678eaf42a415b804cd950fe,
        type: 3}
      propertyPath: litMaterial
      value: 
      objectReference: {fileID: 2100000, guid: 9e87f3268179e9749a46892a3d4b3dcc, type: 2}
    m_RemovedComponents: []
  m_SourcePrefab: {fileID: 100100000, guid: 325329e3d678eaf42a415b804cd950fe, type: 3}
