%YAML 1.1
%TAG !u! tag:unity3d.com,2011:
--- !u!1 &8344014834414659414
GameObject:
  m_ObjectHideFlags: 0
  m_CorrespondingSourceObject: {fileID: 0}
  m_PrefabInstance: {fileID: 0}
  m_PrefabAsset: {fileID: 0}
  serializedVersion: 6
  m_Component:
  - component: {fileID: 3269991342736606647}
  - component: {fileID: 360322517577724772}
  - component: {fileID: 8058335075159539814}
  m_Layer: 0
  m_Name: PlayerGrabber
  m_TagString: Untagged
  m_Icon: {fileID: 0}
  m_NavMeshLayer: 0
  m_StaticEditorFlags: 0
  m_IsActive: 1
--- !u!4 &3269991342736606647
Transform:
  m_ObjectHideFlags: 0
  m_CorrespondingSourceObject: {fileID: 0}
  m_PrefabInstance: {fileID: 0}
  m_PrefabAsset: {fileID: 0}
  m_GameObject: {fileID: 8344014834414659414}
  m_LocalRotation: {x: -0.7071068, y: -0, z: -0, w: 0.7071068}
  m_LocalPosition: {x: 0.0001, y: -0.0006, z: -0.03}
  m_LocalScale: {x: 0.005, y: 0.009999997, z: 0.0049999985}
  m_Children: []
  m_Father: {fileID: 4254322315234568762}
  m_RootOrder: 2
  m_LocalEulerAnglesHint: {x: 0, y: 0, z: 0}
--- !u!65 &360322517577724772
BoxCollider:
  m_ObjectHideFlags: 0
  m_CorrespondingSourceObject: {fileID: 0}
  m_PrefabInstance: {fileID: 0}
  m_PrefabAsset: {fileID: 0}
  m_GameObject: {fileID: 8344014834414659414}
  m_Material: {fileID: 0}
  m_IsTrigger: 1
  m_Enabled: 1
  serializedVersion: 2
  m_Size: {x: 4.36, y: 6.45, z: 4.15}
  m_Center: {x: 0, y: -11.37, z: 0}
--- !u!114 &8058335075159539814
MonoBehaviour:
  m_ObjectHideFlags: 0
  m_CorrespondingSourceObject: {fileID: 0}
  m_PrefabInstance: {fileID: 0}
  m_PrefabAsset: {fileID: 0}
  m_GameObject: {fileID: 8344014834414659414}
  m_Enabled: 1
  m_EditorHideFlags: 0
  m_Script: {fileID: 11500000, guid: 6060df88e2c2d6a4d9e0e103b9b3ca2c, type: 3}
  m_Name: 
  m_EditorClassIdentifier: 
--- !u!1001 &4943147209343676594
PrefabInstance:
  m_ObjectHideFlags: 0
  serializedVersion: 2
  m_Modification:
    m_TransformParent: {fileID: 0}
    m_Modifications:
    - target: {fileID: 3812334485192813905, guid: c95a083318190274eac06b1449c202b5,
        type: 3}
      propertyPath: InitialModule.startColor.maxColor.r
      value: 1
      objectReference: {fileID: 0}
    - target: {fileID: 3812334485192813905, guid: c95a083318190274eac06b1449c202b5,
        type: 3}
      propertyPath: InitialModule.startColor.maxColor.g
      value: 0.33844492
      objectReference: {fileID: 0}
    - target: {fileID: 3812334485192813905, guid: c95a083318190274eac06b1449c202b5,
        type: 3}
      propertyPath: InitialModule.startColor.maxColor.b
      value: 0
      objectReference: {fileID: 0}
    - target: {fileID: 3812334485192813905, guid: c95a083318190274eac06b1449c202b5,
        type: 3}
      propertyPath: ColorModule.gradient.maxGradient.key0.g
      value: 0
      objectReference: {fileID: 0}
    - target: {fileID: 3812334485192813905, guid: c95a083318190274eac06b1449c202b5,
        type: 3}
      propertyPath: ColorModule.gradient.maxGradient.key0.b
      value: 0
      objectReference: {fileID: 0}
    - target: {fileID: 3812334485192813905, guid: c95a083318190274eac06b1449c202b5,
        type: 3}
      propertyPath: ColorModule.gradient.maxGradient.key0.r
      value: 0
      objectReference: {fileID: 0}
    - target: {fileID: 3812334485192813905, guid: c95a083318190274eac06b1449c202b5,
        type: 3}
      propertyPath: VelocityModule.z.scalar
      value: 1.1
      objectReference: {fileID: 0}
    - target: {fileID: 3812334485192813905, guid: c95a083318190274eac06b1449c202b5,
        type: 3}
      propertyPath: ShapeModule.m_Position.z
      value: -12
      objectReference: {fileID: 0}
    - target: {fileID: 3812334485192813905, guid: c95a083318190274eac06b1449c202b5,
        type: 3}
      propertyPath: ColorModule.gradient.maxGradient.ctime1
      value: 65535
      objectReference: {fileID: 0}
    - target: {fileID: 3812334485192813905, guid: c95a083318190274eac06b1449c202b5,
        type: 3}
      propertyPath: ColorModule.gradient.maxGradient.ctime0
      value: 17155
      objectReference: {fileID: 0}
    - target: {fileID: 3812334485192813905, guid: c95a083318190274eac06b1449c202b5,
        type: 3}
      propertyPath: ColorModule.gradient.maxGradient.key1.r
      value: 1
      objectReference: {fileID: 0}
    - target: {fileID: 3812334485192813905, guid: c95a083318190274eac06b1449c202b5,
        type: 3}
      propertyPath: ColorModule.gradient.maxGradient.key1.g
      value: 1
      objectReference: {fileID: 0}
    - target: {fileID: 3812334485192813905, guid: c95a083318190274eac06b1449c202b5,
        type: 3}
      propertyPath: ColorModule.gradient.maxGradient.key1.b
      value: 1
      objectReference: {fileID: 0}
    - target: {fileID: 5316688959116454043, guid: c95a083318190274eac06b1449c202b5,
        type: 3}
      propertyPath: m_Name
      value: ExitDoor
      objectReference: {fileID: 0}
    - target: {fileID: 7957805562004363296, guid: c95a083318190274eac06b1449c202b5,
        type: 3}
      propertyPath: TrailModule.colorOverLifetime.maxColor.r
      value: 1
      objectReference: {fileID: 0}
    - target: {fileID: 7957805562004363296, guid: c95a083318190274eac06b1449c202b5,
        type: 3}
      propertyPath: TrailModule.colorOverLifetime.maxColor.g
      value: 0.36078432
      objectReference: {fileID: 0}
    - target: {fileID: 7957805562004363296, guid: c95a083318190274eac06b1449c202b5,
        type: 3}
      propertyPath: TrailModule.colorOverLifetime.maxColor.b
      value: 0
      objectReference: {fileID: 0}
    - target: {fileID: 7957805562004363296, guid: c95a083318190274eac06b1449c202b5,
        type: 3}
      propertyPath: TrailModule.colorOverTrail.maxColor.r
      value: 1
      objectReference: {fileID: 0}
    - target: {fileID: 7957805562004363296, guid: c95a083318190274eac06b1449c202b5,
        type: 3}
      propertyPath: TrailModule.colorOverTrail.maxColor.g
      value: 0.36078432
      objectReference: {fileID: 0}
    - target: {fileID: 7957805562004363296, guid: c95a083318190274eac06b1449c202b5,
        type: 3}
      propertyPath: TrailModule.colorOverTrail.maxColor.b
      value: 0
      objectReference: {fileID: 0}
    - target: {fileID: 7957805562004363296, guid: c95a083318190274eac06b1449c202b5,
        type: 3}
      propertyPath: InitialModule.startColor.maxColor.r
      value: 1
      objectReference: {fileID: 0}
    - target: {fileID: 7957805562004363296, guid: c95a083318190274eac06b1449c202b5,
        type: 3}
      propertyPath: InitialModule.startColor.maxColor.g
      value: 0.36078432
      objectReference: {fileID: 0}
    - target: {fileID: 7957805562004363296, guid: c95a083318190274eac06b1449c202b5,
        type: 3}
      propertyPath: InitialModule.startColor.maxColor.b
      value: 0
      objectReference: {fileID: 0}
    - target: {fileID: 7957805562004363296, guid: c95a083318190274eac06b1449c202b5,
        type: 3}
      propertyPath: InitialModule.startColor.maxColor.a
      value: 1
      objectReference: {fileID: 0}
    - target: {fileID: 9192961368896461448, guid: c95a083318190274eac06b1449c202b5,
        type: 3}
      propertyPath: m_LocalPosition.x
      value: 2.02
      objectReference: {fileID: 0}
    - target: {fileID: 9192961368896461448, guid: c95a083318190274eac06b1449c202b5,
        type: 3}
      propertyPath: m_LocalPosition.y
      value: 12.36
      objectReference: {fileID: 0}
    - target: {fileID: 9192961368896461448, guid: c95a083318190274eac06b1449c202b5,
        type: 3}
      propertyPath: m_LocalPosition.z
      value: 1.98
      objectReference: {fileID: 0}
    - target: {fileID: 9192961368896461448, guid: c95a083318190274eac06b1449c202b5,
        type: 3}
      propertyPath: m_LocalRotation.x
      value: 0.7071068
      objectReference: {fileID: 0}
    - target: {fileID: 9192961368896461448, guid: c95a083318190274eac06b1449c202b5,
        type: 3}
      propertyPath: m_LocalRotation.y
      value: 0
      objectReference: {fileID: 0}
    - target: {fileID: 9192961368896461448, guid: c95a083318190274eac06b1449c202b5,
        type: 3}
      propertyPath: m_LocalRotation.z
      value: 0
      objectReference: {fileID: 0}
    - target: {fileID: 9192961368896461448, guid: c95a083318190274eac06b1449c202b5,
        type: 3}
      propertyPath: m_LocalRotation.w
      value: 0.7071068
      objectReference: {fileID: 0}
    - target: {fileID: 9192961368896461448, guid: c95a083318190274eac06b1449c202b5,
        type: 3}
      propertyPath: m_RootOrder
      value: 0
      objectReference: {fileID: 0}
    - target: {fileID: 9192961368896461448, guid: c95a083318190274eac06b1449c202b5,
        type: 3}
      propertyPath: m_LocalEulerAnglesHint.x
      value: 90
      objectReference: {fileID: 0}
    - target: {fileID: 9192961368896461448, guid: c95a083318190274eac06b1449c202b5,
        type: 3}
      propertyPath: m_LocalEulerAnglesHint.y
      value: 0
      objectReference: {fileID: 0}
    - target: {fileID: 9192961368896461448, guid: c95a083318190274eac06b1449c202b5,
        type: 3}
      propertyPath: m_LocalEulerAnglesHint.z
      value: 0
      objectReference: {fileID: 0}
    m_RemovedComponents: []
  m_SourcePrefab: {fileID: 100100000, guid: c95a083318190274eac06b1449c202b5, type: 3}
--- !u!4 &4254322315234568762 stripped
Transform:
  m_CorrespondingSourceObject: {fileID: 9192961368896461448, guid: c95a083318190274eac06b1449c202b5,
    type: 3}
  m_PrefabInstance: {fileID: 4943147209343676594}
  m_PrefabAsset: {fileID: 0}
