%YAML 1.1
%TAG !u! tag:unity3d.com,2011:
--- !u!74 &7400000
AnimationClip:
  m_ObjectHideFlags: 0
  m_CorrespondingSourceObject: {fileID: 0}
  m_PrefabInstance: {fileID: 0}
  m_PrefabAsset: {fileID: 0}
  m_Name: Running animation
  serializedVersion: 6
  m_Legacy: 0
  m_Compressed: 0
  m_UseHighQualityCurve: 1
  m_RotationCurves: []
  m_CompressedRotationCurves: []
  m_EulerCurves: []
  m_PositionCurves: []
  m_ScaleCurves: []
  m_FloatCurves: []
  m_PPtrCurves:
  - curve:
    - time: 0
      value: {fileID: 21300000, guid: ab869c37ec28f284f93a18b4a3c504f3, type: 3}
    - time: 0.05
      value: {fileID: 21300000, guid: fcd38c3edbb3d834795b4fa0af95a1a2, type: 3}
    - time: 0.1
      value: {fileID: 21300000, guid: 6b73418e15288984c906bd532f086353, type: 3}
    - time: 0.15
      value: {fileID: 21300000, guid: 29f58463634fa5f4687a4040359a5589, type: 3}
    - time: 0.2
      value: {fileID: 21300000, guid: 3e8a28f3885ab2c4d9f00a95dc67612f, type: 3}
    - time: 0.25
      value: {fileID: 21300000, guid: a9e347048d86c304f946eec82159be96, type: 3}
    - time: 0.3
      value: {fileID: 21300000, guid: 7a5087a977d1afa468dac656c598050f, type: 3}
    - time: 0.35
      value: {fileID: 21300000, guid: d6b1350a7c5543d49af633b2adf95ff8, type: 3}
    - time: 0.4
      value: {fileID: 21300000, guid: 8d38e1356c4f81f44bbc41a72df09ad3, type: 3}
    - time: 0.45
      value: {fileID: 21300000, guid: 3f6fae7466471f64799bd2f78859c7e5, type: 3}
    - time: 0.5
      value: {fileID: 21300000, guid: 15c5ba488f235ae43a9e1e0090c80b9a, type: 3}
    - time: 0.55
      value: {fileID: 21300000, guid: 6db6ca38d74c779488ccf59abe00846a, type: 3}
    - time: 0.6
      value: {fileID: 21300000, guid: 6cb4e22e582551d4e846553a4e4e504d, type: 3}
    - time: 0.65
      value: {fileID: 21300000, guid: 601fb6aaf2b8b814d9f9fb95fbf7f701, type: 3}
    - time: 0.7
      value: {fileID: 21300000, guid: 28c7d13efd51b0f4dba16aa265294260, type: 3}
    - time: 0.75
      value: {fileID: 21300000, guid: ab869c37ec28f284f93a18b4a3c504f3, type: 3}
    attribute: m_Sprite
    path: 
    classID: 212
    script: {fileID: 0}
  m_SampleRate: 60
  m_WrapMode: 0
  m_Bounds:
    m_Center: {x: 0, y: 0, z: 0}
    m_Extent: {x: 0, y: 0, z: 0}
  m_ClipBindingConstant:
    genericBindings:
    - serializedVersion: 2
      path: 0
      attribute: 0
      script: {fileID: 0}
      typeID: 212
      customType: 23
      isPPtrCurve: 1
    pptrCurveMapping:
    - {fileID: 21300000, guid: ab869c37ec28f284f93a18b4a3c504f3, type: 3}
    - {fileID: 21300000, guid: fcd38c3edbb3d834795b4fa0af95a1a2, type: 3}
    - {fileID: 21300000, guid: 6b73418e15288984c906bd532f086353, type: 3}
    - {fileID: 21300000, guid: 29f58463634fa5f4687a4040359a5589, type: 3}
    - {fileID: 21300000, guid: 3e8a28f3885ab2c4d9f00a95dc67612f, type: 3}
    - {fileID: 21300000, guid: a9e347048d86c304f946eec82159be96, type: 3}
    - {fileID: 21300000, guid: 7a5087a977d1afa468dac656c598050f, type: 3}
    - {fileID: 21300000, guid: d6b1350a7c5543d49af633b2adf95ff8, type: 3}
    - {fileID: 21300000, guid: 8d38e1356c4f81f44bbc41a72df09ad3, type: 3}
    - {fileID: 21300000, guid: 3f6fae7466471f64799bd2f78859c7e5, type: 3}
    - {fileID: 21300000, guid: 15c5ba488f235ae43a9e1e0090c80b9a, type: 3}
    - {fileID: 21300000, guid: 6db6ca38d74c779488ccf59abe00846a, type: 3}
    - {fileID: 21300000, guid: 6cb4e22e582551d4e846553a4e4e504d, type: 3}
    - {fileID: 21300000, guid: 601fb6aaf2b8b814d9f9fb95fbf7f701, type: 3}
    - {fileID: 21300000, guid: 28c7d13efd51b0f4dba16aa265294260, type: 3}
    - {fileID: 21300000, guid: ab869c37ec28f284f93a18b4a3c504f3, type: 3}
  m_AnimationClipSettings:
    serializedVersion: 2
    m_AdditiveReferencePoseClip: {fileID: 0}
    m_AdditiveReferencePoseTime: 0
    m_StartTime: 0
    m_StopTime: 0.76666665
    m_OrientationOffsetY: 0
    m_Level: 0
    m_CycleOffset: 0
    m_HasAdditiveReferencePose: 0
    m_LoopTime: 1
    m_LoopBlend: 0
    m_LoopBlendOrientation: 0
    m_LoopBlendPositionY: 0
    m_LoopBlendPositionXZ: 0
    m_KeepOriginalOrientation: 0
    m_KeepOriginalPositionY: 1
    m_KeepOriginalPositionXZ: 0
    m_HeightFromFeet: 0
    m_Mirror: 0
  m_EditorCurves: []
  m_EulerEditorCurves: []
  m_HasGenericRootTransform: 0
  m_HasMotionFloatCurves: 0
  m_Events: []
